<mxfile host="Electron" modified="2024-02-16T15:48:23.761Z" agent="Mozilla/5.0 (Macintosh; Intel Mac OS X 10_15_7) AppleWebKit/537.36 (KHTML, like Gecko) draw.io/23.1.5 Chrome/120.0.6099.109 Electron/28.1.0 Safari/537.36" etag="eCiVc8rNyt-BSVO4dnht" version="23.1.5" type="device">
  <diagram name="Page-1" id="IVN4ExEE6CgMUoYcA3KA">
    <mxGraphModel dx="1114" dy="999" grid="1" gridSize="10" guides="1" tooltips="1" connect="1" arrows="1" fold="1" page="1" pageScale="1" pageWidth="827" pageHeight="1169" math="0" shadow="0">
      <root>
        <mxCell id="0" />
        <mxCell id="1" parent="0" />
        <mxCell id="o5yCDnDn_BHQlJ8uAQ59-1" value="S0" style="ellipse;whiteSpace=wrap;html=1;" vertex="1" parent="1">
          <mxGeometry x="30" y="240" width="100" height="100" as="geometry" />
        </mxCell>
        <mxCell id="o5yCDnDn_BHQlJ8uAQ59-12" style="edgeStyle=orthogonalEdgeStyle;rounded=0;orthogonalLoop=1;jettySize=auto;html=1;" edge="1" parent="1" source="o5yCDnDn_BHQlJ8uAQ59-2" target="o5yCDnDn_BHQlJ8uAQ59-3">
          <mxGeometry relative="1" as="geometry" />
        </mxCell>
        <mxCell id="o5yCDnDn_BHQlJ8uAQ59-32" value="direction == prev" style="edgeLabel;html=1;align=center;verticalAlign=middle;resizable=0;points=[];" vertex="1" connectable="0" parent="o5yCDnDn_BHQlJ8uAQ59-12">
          <mxGeometry x="0.075" y="-6" relative="1" as="geometry">
            <mxPoint as="offset" />
          </mxGeometry>
        </mxCell>
        <mxCell id="o5yCDnDn_BHQlJ8uAQ59-13" style="edgeStyle=orthogonalEdgeStyle;rounded=0;orthogonalLoop=1;jettySize=auto;html=1;" edge="1" parent="1" source="o5yCDnDn_BHQlJ8uAQ59-2" target="o5yCDnDn_BHQlJ8uAQ59-1">
          <mxGeometry relative="1" as="geometry">
            <Array as="points">
              <mxPoint x="80" y="170" />
            </Array>
          </mxGeometry>
        </mxCell>
        <mxCell id="o5yCDnDn_BHQlJ8uAQ59-22" value="direction == 0" style="edgeLabel;html=1;align=center;verticalAlign=middle;resizable=0;points=[];" vertex="1" connectable="0" parent="o5yCDnDn_BHQlJ8uAQ59-13">
          <mxGeometry x="-0.1848" y="-4" relative="1" as="geometry">
            <mxPoint as="offset" />
          </mxGeometry>
        </mxCell>
        <mxCell id="o5yCDnDn_BHQlJ8uAQ59-2" value="S_REPEAT_DELAY_ENTER&lt;br&gt;–&lt;br&gt;t_deb = millis( );&lt;br&gt;emit (direction)" style="ellipse;whiteSpace=wrap;html=1;" vertex="1" parent="1">
          <mxGeometry x="220" y="130" width="100" height="100" as="geometry" />
        </mxCell>
        <mxCell id="o5yCDnDn_BHQlJ8uAQ59-14" style="edgeStyle=orthogonalEdgeStyle;rounded=0;orthogonalLoop=1;jettySize=auto;html=1;" edge="1" parent="1" source="o5yCDnDn_BHQlJ8uAQ59-3" target="o5yCDnDn_BHQlJ8uAQ59-1">
          <mxGeometry relative="1" as="geometry">
            <Array as="points">
              <mxPoint x="550" y="300" />
            </Array>
          </mxGeometry>
        </mxCell>
        <mxCell id="o5yCDnDn_BHQlJ8uAQ59-24" value="direction == 0" style="edgeLabel;html=1;align=center;verticalAlign=middle;resizable=0;points=[];" vertex="1" connectable="0" parent="o5yCDnDn_BHQlJ8uAQ59-14">
          <mxGeometry x="0.5805" y="-1" relative="1" as="geometry">
            <mxPoint as="offset" />
          </mxGeometry>
        </mxCell>
        <mxCell id="o5yCDnDn_BHQlJ8uAQ59-15" style="edgeStyle=orthogonalEdgeStyle;rounded=0;orthogonalLoop=1;jettySize=auto;html=1;entryX=0.5;entryY=0;entryDx=0;entryDy=0;" edge="1" parent="1" source="o5yCDnDn_BHQlJ8uAQ59-3" target="o5yCDnDn_BHQlJ8uAQ59-4">
          <mxGeometry relative="1" as="geometry" />
        </mxCell>
        <mxCell id="o5yCDnDn_BHQlJ8uAQ59-17" style="edgeStyle=orthogonalEdgeStyle;rounded=0;orthogonalLoop=1;jettySize=auto;html=1;entryX=0.5;entryY=1;entryDx=0;entryDy=0;" edge="1" parent="1" source="o5yCDnDn_BHQlJ8uAQ59-3" target="o5yCDnDn_BHQlJ8uAQ59-2">
          <mxGeometry relative="1" as="geometry">
            <Array as="points">
              <mxPoint x="530" y="250" />
              <mxPoint x="270" y="250" />
            </Array>
          </mxGeometry>
        </mxCell>
        <mxCell id="o5yCDnDn_BHQlJ8uAQ59-29" value="direction != prev &amp;amp;&amp;amp; direction != 0" style="edgeLabel;html=1;align=center;verticalAlign=middle;resizable=0;points=[];" vertex="1" connectable="0" parent="o5yCDnDn_BHQlJ8uAQ59-17">
          <mxGeometry x="-0.16" y="-1" relative="1" as="geometry">
            <mxPoint y="11" as="offset" />
          </mxGeometry>
        </mxCell>
        <mxCell id="o5yCDnDn_BHQlJ8uAQ59-3" value="S_REPEAT_DELAY_WAIT" style="ellipse;whiteSpace=wrap;html=1;" vertex="1" parent="1">
          <mxGeometry x="520" y="130" width="100" height="100" as="geometry" />
        </mxCell>
        <mxCell id="o5yCDnDn_BHQlJ8uAQ59-16" style="edgeStyle=orthogonalEdgeStyle;rounded=0;orthogonalLoop=1;jettySize=auto;html=1;entryX=1;entryY=1;entryDx=0;entryDy=0;" edge="1" parent="1" source="o5yCDnDn_BHQlJ8uAQ59-4" target="o5yCDnDn_BHQlJ8uAQ59-2">
          <mxGeometry relative="1" as="geometry" />
        </mxCell>
        <mxCell id="o5yCDnDn_BHQlJ8uAQ59-27" value="direction != prev &amp;amp;&amp;amp; direction != 0" style="edgeLabel;html=1;align=center;verticalAlign=middle;resizable=0;points=[];" vertex="1" connectable="0" parent="o5yCDnDn_BHQlJ8uAQ59-16">
          <mxGeometry x="-0.3716" y="1" relative="1" as="geometry">
            <mxPoint as="offset" />
          </mxGeometry>
        </mxCell>
        <mxCell id="o5yCDnDn_BHQlJ8uAQ59-20" style="edgeStyle=orthogonalEdgeStyle;rounded=0;orthogonalLoop=1;jettySize=auto;html=1;" edge="1" parent="1" source="o5yCDnDn_BHQlJ8uAQ59-4" target="o5yCDnDn_BHQlJ8uAQ59-5">
          <mxGeometry relative="1" as="geometry" />
        </mxCell>
        <mxCell id="o5yCDnDn_BHQlJ8uAQ59-33" value="direction == prev" style="edgeLabel;html=1;align=center;verticalAlign=middle;resizable=0;points=[];" vertex="1" connectable="0" parent="o5yCDnDn_BHQlJ8uAQ59-20">
          <mxGeometry x="-0.0286" y="-1" relative="1" as="geometry">
            <mxPoint x="-3" y="9" as="offset" />
          </mxGeometry>
        </mxCell>
        <mxCell id="o5yCDnDn_BHQlJ8uAQ59-4" value="S_REPEAT_RATE_ENTER&lt;br&gt;-&lt;br&gt;t_deb= millis() ;&lt;br&gt;emit(direction)" style="ellipse;whiteSpace=wrap;html=1;" vertex="1" parent="1">
          <mxGeometry x="480" y="390" width="100" height="100" as="geometry" />
        </mxCell>
        <mxCell id="o5yCDnDn_BHQlJ8uAQ59-19" style="edgeStyle=orthogonalEdgeStyle;rounded=0;orthogonalLoop=1;jettySize=auto;html=1;entryX=0.5;entryY=1;entryDx=0;entryDy=0;" edge="1" parent="1" source="o5yCDnDn_BHQlJ8uAQ59-5" target="o5yCDnDn_BHQlJ8uAQ59-1">
          <mxGeometry relative="1" as="geometry">
            <Array as="points">
              <mxPoint x="740" y="550" />
              <mxPoint x="80" y="550" />
            </Array>
          </mxGeometry>
        </mxCell>
        <mxCell id="o5yCDnDn_BHQlJ8uAQ59-25" value="direction == 0" style="edgeLabel;html=1;align=center;verticalAlign=middle;resizable=0;points=[];" vertex="1" connectable="0" parent="o5yCDnDn_BHQlJ8uAQ59-19">
          <mxGeometry x="0.2043" y="1" relative="1" as="geometry">
            <mxPoint as="offset" />
          </mxGeometry>
        </mxCell>
        <mxCell id="o5yCDnDn_BHQlJ8uAQ59-21" style="edgeStyle=orthogonalEdgeStyle;rounded=0;orthogonalLoop=1;jettySize=auto;html=1;" edge="1" parent="1" source="o5yCDnDn_BHQlJ8uAQ59-5" target="o5yCDnDn_BHQlJ8uAQ59-4">
          <mxGeometry relative="1" as="geometry">
            <Array as="points">
              <mxPoint x="650" y="470" />
              <mxPoint x="650" y="470" />
            </Array>
          </mxGeometry>
        </mxCell>
        <mxCell id="o5yCDnDn_BHQlJ8uAQ59-34" value="t &amp;gt;= t_deb+repeat_rate" style="edgeLabel;html=1;align=center;verticalAlign=middle;resizable=0;points=[];" vertex="1" connectable="0" parent="o5yCDnDn_BHQlJ8uAQ59-21">
          <mxGeometry x="-0.0308" y="4" relative="1" as="geometry">
            <mxPoint as="offset" />
          </mxGeometry>
        </mxCell>
        <mxCell id="o5yCDnDn_BHQlJ8uAQ59-5" value="S_REPEAT_RATE_WAIT" style="ellipse;whiteSpace=wrap;html=1;" vertex="1" parent="1">
          <mxGeometry x="690" y="390" width="100" height="100" as="geometry" />
        </mxCell>
        <mxCell id="o5yCDnDn_BHQlJ8uAQ59-9" value="" style="curved=1;endArrow=classic;html=1;rounded=0;exitX=0;exitY=0;exitDx=0;exitDy=0;elbow=horizontal;" edge="1" parent="1" source="o5yCDnDn_BHQlJ8uAQ59-3" target="o5yCDnDn_BHQlJ8uAQ59-3">
          <mxGeometry width="50" height="50" relative="1" as="geometry">
            <mxPoint x="390" y="540" as="sourcePoint" />
            <mxPoint x="440" y="490" as="targetPoint" />
            <Array as="points">
              <mxPoint x="540" y="60" />
            </Array>
          </mxGeometry>
        </mxCell>
        <mxCell id="o5yCDnDn_BHQlJ8uAQ59-30" value="t &amp;lt; t_deb+repeat_delay&lt;br&gt;&amp;amp;&amp;amp; direction == prev" style="edgeLabel;html=1;align=center;verticalAlign=middle;resizable=0;points=[];" vertex="1" connectable="0" parent="o5yCDnDn_BHQlJ8uAQ59-9">
          <mxGeometry x="-0.0588" y="-6" relative="1" as="geometry">
            <mxPoint x="83" y="-16" as="offset" />
          </mxGeometry>
        </mxCell>
        <mxCell id="o5yCDnDn_BHQlJ8uAQ59-10" value="" style="curved=1;endArrow=classic;html=1;rounded=0;exitX=0.3;exitY=0;exitDx=0;exitDy=0;exitPerimeter=0;entryX=1;entryY=0;entryDx=0;entryDy=0;" edge="1" parent="1" source="o5yCDnDn_BHQlJ8uAQ59-5" target="o5yCDnDn_BHQlJ8uAQ59-5">
          <mxGeometry width="50" height="50" relative="1" as="geometry">
            <mxPoint x="425" y="155" as="sourcePoint" />
            <mxPoint x="468" y="141" as="targetPoint" />
            <Array as="points">
              <mxPoint x="740" y="230" />
            </Array>
          </mxGeometry>
        </mxCell>
        <mxCell id="o5yCDnDn_BHQlJ8uAQ59-31" value="t &amp;lt; t_deb+repeat_rate&lt;br style=&quot;border-color: var(--border-color);&quot;&gt;&amp;amp;&amp;amp; direction == prev" style="edgeLabel;html=1;align=center;verticalAlign=middle;resizable=0;points=[];" vertex="1" connectable="0" parent="o5yCDnDn_BHQlJ8uAQ59-10">
          <mxGeometry x="-0.5937" y="-3" relative="1" as="geometry">
            <mxPoint y="-32" as="offset" />
          </mxGeometry>
        </mxCell>
        <mxCell id="o5yCDnDn_BHQlJ8uAQ59-11" value="" style="endArrow=classic;html=1;rounded=0;entryX=0.04;entryY=0.68;entryDx=0;entryDy=0;entryPerimeter=0;" edge="1" parent="1" source="o5yCDnDn_BHQlJ8uAQ59-1" target="o5yCDnDn_BHQlJ8uAQ59-2">
          <mxGeometry width="50" height="50" relative="1" as="geometry">
            <mxPoint x="390" y="540" as="sourcePoint" />
            <mxPoint x="440" y="490" as="targetPoint" />
          </mxGeometry>
        </mxCell>
        <mxCell id="o5yCDnDn_BHQlJ8uAQ59-23" value="direction != 0" style="edgeLabel;html=1;align=center;verticalAlign=middle;resizable=0;points=[];" vertex="1" connectable="0" parent="o5yCDnDn_BHQlJ8uAQ59-11">
          <mxGeometry x="-0.0976" y="2" relative="1" as="geometry">
            <mxPoint as="offset" />
          </mxGeometry>
        </mxCell>
        <mxCell id="o5yCDnDn_BHQlJ8uAQ59-18" style="edgeStyle=orthogonalEdgeStyle;rounded=0;orthogonalLoop=1;jettySize=auto;html=1;entryX=0.28;entryY=0.99;entryDx=0;entryDy=0;entryPerimeter=0;" edge="1" parent="1" source="o5yCDnDn_BHQlJ8uAQ59-5" target="o5yCDnDn_BHQlJ8uAQ59-2">
          <mxGeometry relative="1" as="geometry">
            <Array as="points">
              <mxPoint x="740" y="520" />
              <mxPoint x="248" y="520" />
            </Array>
          </mxGeometry>
        </mxCell>
        <mxCell id="o5yCDnDn_BHQlJ8uAQ59-26" value="direction != prev &amp;amp;&amp;amp; direction != 0" style="edgeLabel;html=1;align=center;verticalAlign=middle;resizable=0;points=[];" vertex="1" connectable="0" parent="o5yCDnDn_BHQlJ8uAQ59-18">
          <mxGeometry x="0.0554" y="-1" relative="1" as="geometry">
            <mxPoint as="offset" />
          </mxGeometry>
        </mxCell>
        <mxCell id="o5yCDnDn_BHQlJ8uAQ59-35" style="edgeStyle=orthogonalEdgeStyle;rounded=0;orthogonalLoop=1;jettySize=auto;html=1;entryX=0.65;entryY=1;entryDx=0;entryDy=0;entryPerimeter=0;" edge="1" parent="1" source="o5yCDnDn_BHQlJ8uAQ59-4" target="o5yCDnDn_BHQlJ8uAQ59-1">
          <mxGeometry relative="1" as="geometry">
            <Array as="points">
              <mxPoint x="95" y="470" />
            </Array>
          </mxGeometry>
        </mxCell>
        <mxCell id="o5yCDnDn_BHQlJ8uAQ59-36" value="direction == 0" style="edgeLabel;html=1;align=center;verticalAlign=middle;resizable=0;points=[];" vertex="1" connectable="0" parent="o5yCDnDn_BHQlJ8uAQ59-35">
          <mxGeometry x="-0.2686" y="2" relative="1" as="geometry">
            <mxPoint as="offset" />
          </mxGeometry>
        </mxCell>
      </root>
    </mxGraphModel>
  </diagram>
</mxfile>
